{
  "_embedded": {
    "countries": [
      {
        "code": "US",
        "name": "United States",
        "_links": {
          "self": {
            "href": "http://localhost:8061/purple/api/countries/233"
          },
          "country": {
            "href": "http://localhost:8061/purple/api/countries/233"
          },
          "people": {
            "href": "http://localhost:8061/purple/api/countries/233/people{?projection}",
            "templated": true
          }
        }
      },
      {
        "code": "UM",
        "name": "United States Minor Outlying Islands",
        "_links": {
          "self": {
            "href": "http://localhost:8061/purple/api/countries/234"
          },
          "country": {
            "href": "http://localhost:8061/purple/api/countries/234"
          },
          "people": {
            "href": "http://localhost:8061/purple/api/countries/234/people{?projection}",
            "templated": true
          }
        }
      },
      {
        "code": "UG",
        "name": "Uganda",
        "_links": {
          "self": {
            "href": "http://localhost:8061/purple/api/countries/229"
          },
          "country": {
            "href": "http://localhost:8061/purple/api/countries/229"
          },
          "people": {
            "href": "http://localhost:8061/purple/api/countries/229/people{?projection}",
            "templated": true
          }
        }
      }
    ]
  },
  "_links": {
    "first": {
      "href": "http://localhost:8061/purple/api/countries?page=0&size=3&sort=code,desc"
    },
    "prev": {
      "href": "http://localhost:8061/purple/api/countries?page=4&size=3&sort=code,desc"
    },
    "self": {
      "href": "http://localhost:8061/purple/api/countries"
    },
    "next": {
      "href": "http://localhost:8061/purple/api/countries?page=6&size=3&sort=code,desc"
    },
    "last": {
      "href": "http://localhost:8061/purple/api/countries?page=81&size=3&sort=code,desc"
    },
    "profile": {
      "href": "http://localhost:8061/purple/api/profile/countries"
    },
    "search": {
      "href": "http://localhost:8061/purple/api/countries/search"
    }
  },
  "page": {
    "size": 3,
    "totalElements": 245,
    "totalPages": 82,
    "number": 5
  }
}
